uP/uP_tb.vcd
$date
	Thu Nov 19 22:32:06 2020
$end
$version
	Icarus Verilog
$end
$timescale
	1ps
$end
$scope module testbench $end
$var wire 4 ! data_bus [3:0] $end
$var wire 1 " z_flag $end
$var wire 8 # program_byte [7:0] $end
$var wire 1 $ phase $end
$var wire 4 % oprnd [3:0] $end
$var wire 4 & instr [3:0] $end
$var wire 1 ' c_flag $end
$var wire 12 ( address_RAM [11:0] $end
$var wire 4 ) accu [3:0] $end
$var wire 12 * PC [11:0] $end
$var wire 4 + FF_out [3:0] $end
$var reg 1 , clock $end
$var reg 4 - pushbuttons [3:0] $end
$var reg 1 . reset $end
$var integer 32 / immediateDelay [31:0] $end
$var integer 32 0 jumpDelay [31:0] $end
$var integer 32 1 memoryDelay [31:0] $end
$var integer 32 2 nota [31:0] $end
$scope module uPmodule $end
$var wire 1 , clock $end
$var wire 4 3 data_bus [3:0] $end
$var wire 4 4 pushbuttons [3:0] $end
$var wire 1 . reset $end
$var wire 1 " z_flag $end
$var wire 1 5 weRAM $end
$var wire 4 6 sal_alu [3:0] $end
$var wire 8 7 program_byte [7:0] $end
$var wire 1 $ phase $end
$var wire 4 8 oprnd [3:0] $end
$var wire 1 9 oeOprnd $end
$var wire 1 : oeIN $end
$var wire 1 ; oeALU $end
$var wire 1 < loadPC $end
$var wire 1 = loadOut $end
$var wire 1 > loadFlags $end
$var wire 1 ? loadA $end
$var wire 4 @ instr [3:0] $end
$var wire 7 A indecode [6:0] $end
$var wire 1 B incPC $end
$var wire 1 C csRAM $end
$var wire 13 D control_signals [12:0] $end
$var wire 1 ' c_flag $end
$var wire 12 E address_RAM [11:0] $end
$var wire 4 F accu [3:0] $end
$var wire 1 G Zero $end
$var wire 3 H S [2:0] $end
$var wire 12 I PC [11:0] $end
$var wire 4 J FF_out [3:0] $end
$var wire 1 K Carry $end
$scope module A $end
$var wire 1 , clk $end
$var wire 1 B enable $end
$var wire 1 < loact $end
$var wire 12 L load [11:0] $end
$var wire 1 . reset $end
$var reg 12 M cont [11:0] $end
$upscope $end
$scope module B $end
$var wire 12 N address [11:0] $end
$var wire 8 O data [7:0] $end
$upscope $end
$scope module C $end
$var wire 8 P D8 [7:0] $end
$var wire 1 Q En $end
$var wire 1 , clk $end
$var wire 1 . reset $end
$var wire 4 R Q8b [3:0] $end
$var wire 4 S Q8a [3:0] $end
$scope module a $end
$var wire 4 T D4 [3:0] $end
$var wire 1 Q En $end
$var wire 1 , clk $end
$var wire 1 . reset $end
$var wire 4 U Q4 [3:0] $end
$scope module a $end
$var wire 2 V D2 [1:0] $end
$var wire 1 Q En $end
$var wire 1 , clk $end
$var wire 1 . reset $end
$var wire 2 W Q2 [1:0] $end
$scope module a $end
$var wire 1 X D $end
$var wire 1 Q En $end
$var wire 1 , clk $end
$var wire 1 . reset $end
$var reg 1 Y Q $end
$upscope $end
$scope module b $end
$var wire 1 Z D $end
$var wire 1 Q En $end
$var wire 1 , clk $end
$var wire 1 . reset $end
$var reg 1 [ Q $end
$upscope $end
$upscope $end
$scope module b $end
$var wire 2 \ D2 [1:0] $end
$var wire 1 Q En $end
$var wire 1 , clk $end
$var wire 1 . reset $end
$var wire 2 ] Q2 [1:0] $end
$scope module a $end
$var wire 1 ^ D $end
$var wire 1 Q En $end
$var wire 1 , clk $end
$var wire 1 . reset $end
$var reg 1 _ Q $end
$upscope $end
$scope module b $end
$var wire 1 ` D $end
$var wire 1 Q En $end
$var wire 1 , clk $end
$var wire 1 . reset $end
$var reg 1 a Q $end
$upscope $end
$upscope $end
$upscope $end
$scope module b $end
$var wire 4 b D4 [3:0] $end
$var wire 1 Q En $end
$var wire 1 , clk $end
$var wire 1 . reset $end
$var wire 4 c Q4 [3:0] $end
$scope module a $end
$var wire 2 d D2 [1:0] $end
$var wire 1 Q En $end
$var wire 1 , clk $end
$var wire 1 . reset $end
$var wire 2 e Q2 [1:0] $end
$scope module a $end
$var wire 1 f D $end
$var wire 1 Q En $end
$var wire 1 , clk $end
$var wire 1 . reset $end
$var reg 1 g Q $end
$upscope $end
$scope module b $end
$var wire 1 h D $end
$var wire 1 Q En $end
$var wire 1 , clk $end
$var wire 1 . reset $end
$var reg 1 i Q $end
$upscope $end
$upscope $end
$scope module b $end
$var wire 2 j D2 [1:0] $end
$var wire 1 Q En $end
$var wire 1 , clk $end
$var wire 1 . reset $end
$var wire 2 k Q2 [1:0] $end
$scope module a $end
$var wire 1 l D $end
$var wire 1 Q En $end
$var wire 1 , clk $end
$var wire 1 . reset $end
$var reg 1 m Q $end
$upscope $end
$scope module b $end
$var wire 1 n D $end
$var wire 1 Q En $end
$var wire 1 , clk $end
$var wire 1 . reset $end
$var reg 1 o Q $end
$upscope $end
$upscope $end
$upscope $end
$upscope $end
$scope module D $end
$var wire 1 > En $end
$var wire 1 , clk $end
$var wire 1 . reset $end
$var wire 1 ' Q1 $end
$var wire 1 " Q0 $end
$var wire 1 K D1 $end
$var wire 1 G D0 $end
$scope module a $end
$var wire 1 > En $end
$var wire 1 , clk $end
$var wire 1 . reset $end
$var wire 1 K D $end
$var reg 1 ' Q $end
$upscope $end
$scope module b $end
$var wire 1 > En $end
$var wire 1 , clk $end
$var wire 1 . reset $end
$var wire 1 G D $end
$var reg 1 " Q $end
$upscope $end
$upscope $end
$scope module E $end
$var wire 1 , clk $end
$var wire 1 . reset $end
$var wire 1 $ Q $end
$scope module a $end
$var wire 1 p D $end
$var wire 1 , clk $end
$var wire 1 . reset $end
$var reg 1 $ Q $end
$upscope $end
$upscope $end
$scope module F $end
$var wire 1 9 en $end
$var wire 4 q in [3:0] $end
$var wire 4 r out [3:0] $end
$upscope $end
$scope module G $end
$var wire 1 ; en $end
$var wire 4 s out [3:0] $end
$var wire 4 t in [3:0] $end
$upscope $end
$scope module H $end
$var wire 1 : en $end
$var wire 4 u in [3:0] $end
$var wire 4 v out [3:0] $end
$upscope $end
$scope module I $end
$var wire 4 w D4 [3:0] $end
$var wire 1 = En $end
$var wire 1 , clk $end
$var wire 1 . reset $end
$var wire 4 x Q4 [3:0] $end
$scope module a $end
$var wire 2 y D2 [1:0] $end
$var wire 1 = En $end
$var wire 1 , clk $end
$var wire 1 . reset $end
$var wire 2 z Q2 [1:0] $end
$scope module a $end
$var wire 1 { D $end
$var wire 1 = En $end
$var wire 1 , clk $end
$var wire 1 . reset $end
$var reg 1 | Q $end
$upscope $end
$scope module b $end
$var wire 1 } D $end
$var wire 1 = En $end
$var wire 1 , clk $end
$var wire 1 . reset $end
$var reg 1 ~ Q $end
$upscope $end
$upscope $end
$scope module b $end
$var wire 2 !" D2 [1:0] $end
$var wire 1 = En $end
$var wire 1 , clk $end
$var wire 1 . reset $end
$var wire 2 "" Q2 [1:0] $end
$scope module a $end
$var wire 1 #" D $end
$var wire 1 = En $end
$var wire 1 , clk $end
$var wire 1 . reset $end
$var reg 1 $" Q $end
$upscope $end
$scope module b $end
$var wire 1 %" D $end
$var wire 1 = En $end
$var wire 1 , clk $end
$var wire 1 . reset $end
$var reg 1 &" Q $end
$upscope $end
$upscope $end
$upscope $end
$scope module J $end
$var wire 12 '" address_ram [11:0] $end
$var wire 1 C cs $end
$var wire 4 (" data [3:0] $end
$var wire 1 5 we $end
$var reg 4 )" data_out [3:0] $end
$scope begin MEM_READ $end
$upscope $end
$scope begin MEM_WRITE $end
$upscope $end
$upscope $end
$scope module K $end
$var wire 7 *" address1 [6:0] $end
$var reg 13 +" signals [12:0] $end
$upscope $end
$scope module L $end
$var wire 4 ," A [3:0] $end
$var wire 3 -" S [2:0] $end
$var wire 4 ." B [3:0] $end
$var reg 1 K Carry $end
$var reg 5 /" Q [4:0] $end
$var reg 4 0" Y [3:0] $end
$var reg 1 G Zero $end
$upscope $end
$scope module M $end
$var wire 4 1" D4 [3:0] $end
$var wire 1 ? En $end
$var wire 1 , clk $end
$var wire 1 . reset $end
$var wire 4 2" Q4 [3:0] $end
$scope module a $end
$var wire 2 3" D2 [1:0] $end
$var wire 1 ? En $end
$var wire 1 , clk $end
$var wire 1 . reset $end
$var wire 2 4" Q2 [1:0] $end
$scope module a $end
$var wire 1 5" D $end
$var wire 1 ? En $end
$var wire 1 , clk $end
$var wire 1 . reset $end
$var reg 1 6" Q $end
$upscope $end
$scope module b $end
$var wire 1 7" D $end
$var wire 1 ? En $end
$var wire 1 , clk $end
$var wire 1 . reset $end
$var reg 1 8" Q $end
$upscope $end
$upscope $end
$scope module b $end
$var wire 2 9" D2 [1:0] $end
$var wire 1 ? En $end
$var wire 1 , clk $end
$var wire 1 . reset $end
$var wire 2 :" Q2 [1:0] $end
$scope module a $end
$var wire 1 ;" D $end
$var wire 1 ? En $end
$var wire 1 , clk $end
$var wire 1 . reset $end
$var reg 1 <" Q $end
$upscope $end
$scope module b $end
$var wire 1 =" D $end
$var wire 1 ? En $end
$var wire 1 , clk $end
$var wire 1 . reset $end
$var reg 1 >" Q $end
$upscope $end
$upscope $end
$upscope $end
$upscope $end
$upscope $end
$enddefinitions $end
#0
$dumpvars
x>"
x="
x<"
x;"
bx :"
bx 9"
x8"
x7"
x6"
x5"
bx 4"
bx 3"
bx 2"
bx 1"
bx 0"
bx /"
bx ."
bx -"
bx ,"
bx +"
bx *"
bx )"
bx ("
bx '"
x&"
x%"
x$"
x#"
bx ""
bx !"
x~
x}
x|
x{
bx z
bx y
bx x
bx w
bx v
b110 u
bx t
bx s
bx r
bx q
xp
xo
xn
xm
xl
bx k
bx j
xi
xh
xg
xf
bx e
bx d
bx c
bx b
xa
x`
x_
x^
bx ]
bx \
x[
xZ
xY
xX
bx W
bx V
bx U
bx T
bx S
bx R
xQ
bx P
bx O
bx N
bx M
bx L
xK
bx J
bx I
bx H
xG
bx F
bx E
bx D
xC
xB
bx A
bx @
x?
x>
x=
x<
x;
x:
x9
bx 8
bx 7
bx 6
x5
b110 4
bx 3
b0 2
b100010100 1
b1010010000 0
b10000 /
0.
b110 -
0,
bx +
bx *
bx )
bx (
x'
bx &
bx %
x$
bx #
x"
bx !
$end
#2
0K
b0xxxx /"
0=
09
0:
1;
05
0C
b0 H
b0 -"
0>
0?
0<
1B
b1000000001000 D
b1000000001000 +"
0X
1Z
0^
0`
1f
1h
1l
1n
b1 V
b0 \
b11 d
b11 j
b100 T
b1111 b
1p
1Q
b1001111 #
b1001111 7
b1001111 O
b1001111 P
b0 *
b0 I
b0 M
b0 N
0Y
b0 W
0[
0_
b0 &
b0 @
b0 S
b0 U
b0 ]
0a
0g
b0 e
0i
0m
b1001111 (
b1001111 E
b1001111 L
b1001111 '"
b0 %
b0 8
b0 R
b0 c
b0 q
b0 k
0o
0'
0"
b0 A
b0 *"
0$
0|
b0 z
0~
0$"
b0 +
b0 J
b0 x
b0 ""
0&"
06"
b0 4"
08"
0<"
b0 )
b0 F
b0 ."
b0 2"
b0 :"
0>"
1.
#3
0.
#5
xZ
x^
xn
xf
xh
xl
bx d
bx j
bx b
xX
x`
bx V
bx \
bx T
0p
0Q
bx #
bx 7
bx O
bx P
b101111 *
b101111 I
b101111 M
b101111 N
1$
1o
b11 k
1m
1i
b1111xxxxxxxx (
b1111xxxxxxxx E
b1111xxxxxxxx L
b1111xxxxxxxx '"
b1111 %
b1111 8
b1111 R
b1111 c
b1111 q
b11 e
1g
b1000100 A
b1000100 *"
b100 &
b100 @
b100 S
b100 U
b1 W
1[
1,
#10
0,
#15
1p
1Q
b110000 *
b110000 I
b110000 M
b110000 N
b100 A
b100 *"
0$
1,
#20
0,
#25
0p
0Q
b110010 *
b110010 I
b110010 M
b110010 N
1$
xo
bx k
xm
xi
bx (
bx E
bx L
bx '"
bx %
bx 8
bx R
bx c
bx q
bx e
xg
xa
bx ]
x_
x[
b100xxxx A
b100xxxx *"
bx &
bx @
bx S
bx U
bx W
xY
1,
#30
0,
#35
1p
1Q
b110011 *
b110011 I
b110011 M
b110011 N
b0xxxx A
b0xxxx *"
0$
1,
#40
0,
#45
0p
0Q
b110100 *
b110100 I
b110100 M
b110100 N
b100xxxx A
b100xxxx *"
1$
1,
#50
0,
#55
1p
1Q
b110101 *
b110101 I
b110101 M
b110101 N
b0xxxx A
b0xxxx *"
0$
1,
#60
0,
#65
0p
0Q
b110110 *
b110110 I
b110110 M
b110110 N
b100xxxx A
b100xxxx *"
1$
1,
#70
0,
#75
1p
1Q
b110111 *
b110111 I
b110111 M
b110111 N
b0xxxx A
b0xxxx *"
0$
1,
#80
0,
#85
0p
0Q
b111000 *
b111000 I
b111000 M
b111000 N
b100xxxx A
b100xxxx *"
1$
1,
#90
0,
#95
1p
1Q
b111001 *
b111001 I
b111001 M
b111001 N
b0xxxx A
b0xxxx *"
0$
1,
#100
0,
#105
0p
0Q
b111010 *
b111010 I
b111010 M
b111010 N
b100xxxx A
b100xxxx *"
1$
1,
#110
0,
#115
1p
1Q
b111011 *
b111011 I
b111011 M
b111011 N
b0xxxx A
b0xxxx *"
0$
1,
#120
0,
#125
0p
0Q
b111100 *
b111100 I
b111100 M
b111100 N
b100xxxx A
b100xxxx *"
1$
1,
#130
0,
#135
1p
1Q
b111101 *
b111101 I
b111101 M
b111101 N
b0xxxx A
b0xxxx *"
0$
1,
#140
0,
#145
0p
0Q
b111110 *
b111110 I
b111110 M
b111110 N
b100xxxx A
b100xxxx *"
1$
1,
#150
0,
#155
1p
1Q
b111111 *
b111111 I
b111111 M
b111111 N
b0xxxx A
b0xxxx *"
0$
1,
#160
0,
#165
0p
0Q
b1000000 *
b1000000 I
b1000000 M
b1000000 N
b100xxxx A
b100xxxx *"
1$
1,
#170
0,
#175
1p
1Q
b1000001 *
b1000001 I
b1000001 M
b1000001 N
b0xxxx A
b0xxxx *"
0$
1,
#180
0,
#185
0p
0Q
b1000010 *
b1000010 I
b1000010 M
b1000010 N
b100xxxx A
b100xxxx *"
1$
1,
#190
0,
#195
1p
1Q
b1000011 *
b1000011 I
b1000011 M
b1000011 N
b0xxxx A
b0xxxx *"
0$
1,
#200
0,
#205
0p
0Q
b1000100 *
b1000100 I
b1000100 M
b1000100 N
b100xxxx A
b100xxxx *"
1$
1,
#210
0,
#215
1p
1Q
b1000101 *
b1000101 I
b1000101 M
b1000101 N
b0xxxx A
b0xxxx *"
0$
1,
#220
0,
#225
0p
0Q
b1000110 *
b1000110 I
b1000110 M
b1000110 N
b100xxxx A
b100xxxx *"
1$
1,
#230
0,
#235
1p
1Q
b1000111 *
b1000111 I
b1000111 M
b1000111 N
b0xxxx A
b0xxxx *"
0$
1,
#236
b1110 -
b1110 4
b1110 u
#240
0,
#245
0p
0Q
b1001000 *
b1001000 I
b1001000 M
b1001000 N
b100xxxx A
b100xxxx *"
1$
1,
#250
0,
#255
1p
1Q
b1001001 *
b1001001 I
b1001001 M
b1001001 N
b0xxxx A
b0xxxx *"
0$
1,
#260
0,
#265
0p
0Q
b1001010 *
b1001010 I
b1001010 M
b1001010 N
b100xxxx A
b100xxxx *"
1$
1,
#270
0,
#275
1p
1Q
b1001011 *
b1001011 I
b1001011 M
b1001011 N
b0xxxx A
b0xxxx *"
0$
1,
#280
0,
#285
0p
0Q
b1001100 *
b1001100 I
b1001100 M
b1001100 N
b100xxxx A
b100xxxx *"
1$
1,
#290
0,
#295
1p
1Q
b1001101 *
b1001101 I
b1001101 M
b1001101 N
b0xxxx A
b0xxxx *"
0$
1,
#300
0,
#305
0p
0Q
b1001110 *
b1001110 I
b1001110 M
b1001110 N
b100xxxx A
b100xxxx *"
1$
1,
#310
0,
#315
1p
1Q
b1001111 *
b1001111 I
b1001111 M
b1001111 N
b0xxxx A
b0xxxx *"
0$
1,
#320
0,
#325
xX
xZ
x^
x`
xf
xh
xl
xn
bx V
bx \
bx d
bx j
bx T
bx b
0p
0Q
bx (
bx E
bx L
bx '"
bx #
bx 7
bx O
bx P
b1010101 *
b1010101 I
b1010101 M
b1010101 N
b100xxxx A
b100xxxx *"
1$
1,
#330
0,
#335
1p
1Q
b1010110 *
b1010110 I
b1010110 M
b1010110 N
b0xxxx A
b0xxxx *"
0$
1,
#340
0,
#345
0p
0Q
b1010111 *
b1010111 I
b1010111 M
b1010111 N
b100xxxx A
b100xxxx *"
1$
1,
#350
0,
#355
1p
1Q
b1011000 *
b1011000 I
b1011000 M
b1011000 N
b0xxxx A
b0xxxx *"
0$
1,
#360
0,
#365
0p
0Q
b1011001 *
b1011001 I
b1011001 M
b1011001 N
b100xxxx A
b100xxxx *"
1$
1,
#370
0,
#375
1p
1Q
b1011010 *
b1011010 I
b1011010 M
b1011010 N
b0xxxx A
b0xxxx *"
0$
1,
#380
0,
#385
0p
0Q
b1011011 *
b1011011 I
b1011011 M
b1011011 N
b100xxxx A
b100xxxx *"
1$
1,
#390
0,
#395
1p
1Q
b1011100 *
b1011100 I
b1011100 M
b1011100 N
b0xxxx A
b0xxxx *"
0$
1,
#400
0,
#405
0p
0Q
b1011101 *
b1011101 I
b1011101 M
b1011101 N
b100xxxx A
b100xxxx *"
1$
1,
#410
0,
#415
1p
1Q
b1011110 *
b1011110 I
b1011110 M
b1011110 N
b0xxxx A
b0xxxx *"
0$
1,
#420
0,
#425
0p
0Q
b1011111 *
b1011111 I
b1011111 M
b1011111 N
b100xxxx A
b100xxxx *"
1$
1,
#430
0,
#435
1p
1Q
b1100000 *
b1100000 I
b1100000 M
b1100000 N
b0xxxx A
b0xxxx *"
0$
1,
#440
0,
#445
0p
0Q
b1100001 *
b1100001 I
b1100001 M
b1100001 N
b100xxxx A
b100xxxx *"
1$
1,
#450
0,
#455
1p
1Q
b1100010 *
b1100010 I
b1100010 M
b1100010 N
b0xxxx A
b0xxxx *"
0$
1,
#460
0,
#465
0p
0Q
b1100011 *
b1100011 I
b1100011 M
b1100011 N
b100xxxx A
b100xxxx *"
1$
1,
#470
0,
#475
1p
1Q
b1100100 *
b1100100 I
b1100100 M
b1100100 N
b0xxxx A
b0xxxx *"
0$
1,
#480
0,
#485
0p
0Q
b1100101 *
b1100101 I
b1100101 M
b1100101 N
b100xxxx A
b100xxxx *"
1$
1,
#490
0,
#495
1p
1Q
b1100110 *
b1100110 I
b1100110 M
b1100110 N
b0xxxx A
b0xxxx *"
0$
1,
#500
0,
#505
0p
0Q
b1100111 *
b1100111 I
b1100111 M
b1100111 N
b100xxxx A
b100xxxx *"
1$
1,
#510
0,
#515
1p
1Q
b1101000 *
b1101000 I
b1101000 M
b1101000 N
b0xxxx A
b0xxxx *"
0$
1,
#520
0,
#525
0p
0Q
b1101001 *
b1101001 I
b1101001 M
b1101001 N
b100xxxx A
b100xxxx *"
1$
1,
#530
0,
#535
1p
1Q
b1101010 *
b1101010 I
b1101010 M
b1101010 N
b0xxxx A
b0xxxx *"
0$
1,
#540
0,
#545
0p
0Q
b1101011 *
b1101011 I
b1101011 M
b1101011 N
b100xxxx A
b100xxxx *"
1$
1,
#550
0,
#555
1p
1Q
b1101100 *
b1101100 I
b1101100 M
b1101100 N
b0xxxx A
b0xxxx *"
0$
1,
#560
0,
#565
0p
0Q
b1101101 *
b1101101 I
b1101101 M
b1101101 N
b100xxxx A
b100xxxx *"
1$
1,
#570
0,
#575
1p
1Q
b1101110 *
b1101110 I
b1101110 M
b1101110 N
b0xxxx A
b0xxxx *"
0$
1,
#580
0,
#585
0p
0Q
b1101111 *
b1101111 I
b1101111 M
b1101111 N
b100xxxx A
b100xxxx *"
1$
1,
#590
0,
#595
1p
1Q
b1110000 *
b1110000 I
b1110000 M
b1110000 N
b0xxxx A
b0xxxx *"
0$
1,
#600
0,
#605
0p
0Q
b1110001 *
b1110001 I
b1110001 M
b1110001 N
b100xxxx A
b100xxxx *"
1$
1,
#610
0,
#615
1p
1Q
b1110010 *
b1110010 I
b1110010 M
b1110010 N
b0xxxx A
b0xxxx *"
0$
1,
#620
0,
#625
0p
0Q
b1110011 *
b1110011 I
b1110011 M
b1110011 N
b100xxxx A
b100xxxx *"
1$
1,
#630
0,
#635
1p
1Q
b1110100 *
b1110100 I
b1110100 M
b1110100 N
b0xxxx A
b0xxxx *"
0$
1,
#640
0,
#645
0p
0Q
b1110101 *
b1110101 I
b1110101 M
b1110101 N
b100xxxx A
b100xxxx *"
1$
1,
#650
0,
#655
1p
1Q
b1110110 *
b1110110 I
b1110110 M
b1110110 N
b0xxxx A
b0xxxx *"
0$
1,
#660
0,
#665
0p
0Q
b1110111 *
b1110111 I
b1110111 M
b1110111 N
b100xxxx A
b100xxxx *"
1$
1,
#670
0,
#675
1p
1Q
b1111000 *
b1111000 I
b1111000 M
b1111000 N
b0xxxx A
b0xxxx *"
0$
1,
#680
0,
#685
0p
0Q
b1111001 *
b1111001 I
b1111001 M
b1111001 N
b100xxxx A
b100xxxx *"
1$
1,
#690
0,
#695
1p
1Q
b1111010 *
b1111010 I
b1111010 M
b1111010 N
b0xxxx A
b0xxxx *"
0$
1,
#700
0,
#705
0p
0Q
b1111011 *
b1111011 I
b1111011 M
b1111011 N
b100xxxx A
b100xxxx *"
1$
1,
#710
0,
#715
1p
1Q
b1111100 *
b1111100 I
b1111100 M
b1111100 N
b0xxxx A
b0xxxx *"
0$
1,
#720
0,
#725
0p
0Q
b1111101 *
b1111101 I
b1111101 M
b1111101 N
b100xxxx A
b100xxxx *"
1$
1,
#730
0,
#735
1p
1Q
b1111110 *
b1111110 I
b1111110 M
b1111110 N
b0xxxx A
b0xxxx *"
0$
1,
#740
0,
#745
0p
0Q
b1111111 *
b1111111 I
b1111111 M
b1111111 N
b100xxxx A
b100xxxx *"
1$
1,
#750
0,
#755
1p
1Q
b10000000 *
b10000000 I
b10000000 M
b10000000 N
b0xxxx A
b0xxxx *"
0$
1,
#760
0,
#765
0p
0Q
b10000001 *
b10000001 I
b10000001 M
b10000001 N
b100xxxx A
b100xxxx *"
1$
1,
#770
0,
#775
1p
1Q
b10000010 *
b10000010 I
b10000010 M
b10000010 N
b0xxxx A
b0xxxx *"
0$
1,
#780
0,
#785
0p
0Q
b10000011 *
b10000011 I
b10000011 M
b10000011 N
b100xxxx A
b100xxxx *"
1$
1,
#790
0,
#795
1p
1Q
b10000100 *
b10000100 I
b10000100 M
b10000100 N
b0xxxx A
b0xxxx *"
0$
1,
#800
0,
#805
0p
0Q
b10000101 *
b10000101 I
b10000101 M
b10000101 N
b100xxxx A
b100xxxx *"
1$
1,
#810
0,
#815
1p
1Q
b10000110 *
b10000110 I
b10000110 M
b10000110 N
b0xxxx A
b0xxxx *"
0$
1,
#820
0,
#825
0p
0Q
b10000111 *
b10000111 I
b10000111 M
b10000111 N
b100xxxx A
b100xxxx *"
1$
1,
#830
0,
#835
1p
1Q
b10001000 *
b10001000 I
b10001000 M
b10001000 N
b0xxxx A
b0xxxx *"
0$
1,
#840
0,
#845
0p
0Q
b10001001 *
b10001001 I
b10001001 M
b10001001 N
b100xxxx A
b100xxxx *"
1$
1,
#850
0,
#855
1p
1Q
b10001010 *
b10001010 I
b10001010 M
b10001010 N
b0xxxx A
b0xxxx *"
0$
1,
#860
0,
#865
0p
0Q
b10001011 *
b10001011 I
b10001011 M
b10001011 N
b100xxxx A
b100xxxx *"
1$
1,
#870
0,
#875
1p
1Q
b10001100 *
b10001100 I
b10001100 M
b10001100 N
b0xxxx A
b0xxxx *"
0$
1,
#880
0,
#885
0p
0Q
b10001101 *
b10001101 I
b10001101 M
b10001101 N
b100xxxx A
b100xxxx *"
1$
1,
#890
0,
#895
1p
1Q
b10001110 *
b10001110 I
b10001110 M
b10001110 N
b0xxxx A
b0xxxx *"
0$
1,
#900
0,
#905
0p
0Q
b10001111 *
b10001111 I
b10001111 M
b10001111 N
b100xxxx A
b100xxxx *"
1$
1,
#910
0,
#915
1p
1Q
b10010000 *
b10010000 I
b10010000 M
b10010000 N
b0xxxx A
b0xxxx *"
0$
1,
#920
0,
#925
0p
0Q
b10010001 *
b10010001 I
b10010001 M
b10010001 N
b100xxxx A
b100xxxx *"
1$
1,
#930
0,
#935
1p
1Q
b10010010 *
b10010010 I
b10010010 M
b10010010 N
b0xxxx A
b0xxxx *"
0$
1,
#940
0,
#945
0p
0Q
b10010011 *
b10010011 I
b10010011 M
b10010011 N
b100xxxx A
b100xxxx *"
1$
1,
#950
0,
#955
1p
1Q
b10010100 *
b10010100 I
b10010100 M
b10010100 N
b0xxxx A
b0xxxx *"
0$
1,
#960
0,
#965
0p
0Q
b10010101 *
b10010101 I
b10010101 M
b10010101 N
b100xxxx A
b100xxxx *"
1$
1,
#970
0,
#975
1p
1Q
b10010110 *
b10010110 I
b10010110 M
b10010110 N
b0xxxx A
b0xxxx *"
0$
1,
#980
0,
#985
0p
0Q
b10010111 *
b10010111 I
b10010111 M
b10010111 N
b100xxxx A
b100xxxx *"
1$
1,
#990
0,
#995
1p
1Q
b10011000 *
b10011000 I
b10011000 M
b10011000 N
b0xxxx A
b0xxxx *"
0$
1,
