uP/uP_tb.vcd
$date
	Sat Nov 21 13:43:26 2020
$end
$version
	Icarus Verilog
$end
$timescale
	1ps
$end
$scope module testbench $end
$var wire 4 ! data_bus [3:0] $end
$var wire 1 " z_flag $end
$var wire 8 # program_byte [7:0] $end
$var wire 1 $ phase $end
$var wire 4 % oprnd [3:0] $end
$var wire 4 & instr [3:0] $end
$var wire 1 ' c_flag $end
$var wire 12 ( address_RAM [11:0] $end
$var wire 4 ) accu [3:0] $end
$var wire 12 * PC [11:0] $end
$var wire 4 + FF_out [3:0] $end
$var reg 1 , clock $end
$var reg 4 - pushbuttons [3:0] $end
$var reg 1 . reset $end
$var integer 32 / immediateDelay [31:0] $end
$var integer 32 0 jumpDelay [31:0] $end
$var integer 32 1 memoryDelay [31:0] $end
$var integer 32 2 nota [31:0] $end
$scope module uPmodule $end
$var wire 1 , clock $end
$var wire 4 3 data_bus [3:0] $end
$var wire 4 4 pushbuttons [3:0] $end
$var wire 1 . reset $end
$var wire 1 " z_flag $end
$var wire 4 5 sal_alu [3:0] $end
$var wire 8 6 program_byte [7:0] $end
$var wire 1 $ phase $end
$var wire 4 7 oprnd [3:0] $end
$var wire 4 8 instr [3:0] $end
$var wire 7 9 indecode [6:0] $end
$var wire 13 : control_signals [12:0] $end
$var wire 1 ' c_flag $end
$var wire 12 ; address_RAM [11:0] $end
$var wire 4 < accu [3:0] $end
$var wire 1 = Zero $end
$var wire 12 > PC [11:0] $end
$var wire 4 ? FF_out [3:0] $end
$var wire 1 @ Carry $end
$scope module accumulador $end
$var wire 1 , clk $end
$var wire 1 A en $end
$var wire 1 . reset $end
$var wire 4 B D [3:0] $end
$var reg 4 C sal_alu [3:0] $end
$upscope $end
$scope module alu $end
$var wire 4 D A [3:0] $end
$var wire 4 E B [3:0] $end
$var wire 3 F F [2:0] $end
$var wire 1 = Zero $end
$var wire 4 G S [3:0] $end
$var wire 1 @ Carry $end
$var reg 5 H regS [4:0] $end
$upscope $end
$scope module buffalu $end
$var wire 1 I en $end
$var wire 4 J in [3:0] $end
$var wire 4 K out [3:0] $end
$upscope $end
$scope module bufffetch $end
$var wire 1 L en $end
$var wire 4 M out [3:0] $end
$var wire 4 N in [3:0] $end
$upscope $end
$scope module buffinputs $end
$var wire 1 O en $end
$var wire 4 P in [3:0] $end
$var wire 4 Q out [3:0] $end
$upscope $end
$scope module decode $end
$var wire 7 R address [6:0] $end
$var wire 13 S signals [12:0] $end
$var reg 13 T signalsReg [12:0] $end
$upscope $end
$scope module fetch $end
$var wire 1 U En $end
$var wire 1 , clk $end
$var wire 1 . reset $end
$var wire 4 V Q8b [3:0] $end
$var wire 4 W Q8a [3:0] $end
$var wire 8 X D8 [7:0] $end
$scope module a $end
$var wire 4 Y D4 [3:0] $end
$var wire 1 U En $end
$var wire 1 , clk $end
$var wire 1 . reset $end
$var wire 4 Z Q4 [3:0] $end
$scope module a $end
$var wire 2 [ D2 [1:0] $end
$var wire 1 U En $end
$var wire 1 , clk $end
$var wire 1 . reset $end
$var wire 2 \ Q2 [1:0] $end
$scope module a $end
$var wire 1 ] D $end
$var wire 1 U En $end
$var wire 1 , clk $end
$var wire 1 . reset $end
$var reg 1 ^ Q $end
$upscope $end
$scope module b $end
$var wire 1 _ D $end
$var wire 1 U En $end
$var wire 1 , clk $end
$var wire 1 . reset $end
$var reg 1 ` Q $end
$upscope $end
$upscope $end
$scope module b $end
$var wire 2 a D2 [1:0] $end
$var wire 1 U En $end
$var wire 1 , clk $end
$var wire 1 . reset $end
$var wire 2 b Q2 [1:0] $end
$scope module a $end
$var wire 1 c D $end
$var wire 1 U En $end
$var wire 1 , clk $end
$var wire 1 . reset $end
$var reg 1 d Q $end
$upscope $end
$scope module b $end
$var wire 1 e D $end
$var wire 1 U En $end
$var wire 1 , clk $end
$var wire 1 . reset $end
$var reg 1 f Q $end
$upscope $end
$upscope $end
$upscope $end
$scope module b $end
$var wire 4 g D4 [3:0] $end
$var wire 1 U En $end
$var wire 1 , clk $end
$var wire 1 . reset $end
$var wire 4 h Q4 [3:0] $end
$scope module a $end
$var wire 2 i D2 [1:0] $end
$var wire 1 U En $end
$var wire 1 , clk $end
$var wire 1 . reset $end
$var wire 2 j Q2 [1:0] $end
$scope module a $end
$var wire 1 k D $end
$var wire 1 U En $end
$var wire 1 , clk $end
$var wire 1 . reset $end
$var reg 1 l Q $end
$upscope $end
$scope module b $end
$var wire 1 m D $end
$var wire 1 U En $end
$var wire 1 , clk $end
$var wire 1 . reset $end
$var reg 1 n Q $end
$upscope $end
$upscope $end
$scope module b $end
$var wire 2 o D2 [1:0] $end
$var wire 1 U En $end
$var wire 1 , clk $end
$var wire 1 . reset $end
$var wire 2 p Q2 [1:0] $end
$scope module a $end
$var wire 1 q D $end
$var wire 1 U En $end
$var wire 1 , clk $end
$var wire 1 . reset $end
$var reg 1 r Q $end
$upscope $end
$scope module b $end
$var wire 1 s D $end
$var wire 1 U En $end
$var wire 1 , clk $end
$var wire 1 . reset $end
$var reg 1 t Q $end
$upscope $end
$upscope $end
$upscope $end
$upscope $end
$scope module flags $end
$var wire 2 u D2 [1:0] $end
$var wire 1 v En $end
$var wire 1 , clk $end
$var wire 1 . reset $end
$var wire 2 w Q2 [1:0] $end
$scope module a $end
$var wire 1 x D $end
$var wire 1 v En $end
$var wire 1 , clk $end
$var wire 1 . reset $end
$var reg 1 y Q $end
$upscope $end
$scope module b $end
$var wire 1 z D $end
$var wire 1 v En $end
$var wire 1 , clk $end
$var wire 1 . reset $end
$var reg 1 { Q $end
$upscope $end
$upscope $end
$scope module outputs $end
$var wire 4 | D4 [3:0] $end
$var wire 1 } En $end
$var wire 1 , clk $end
$var wire 1 . reset $end
$var wire 4 ~ Q4 [3:0] $end
$scope module a $end
$var wire 2 !" D2 [1:0] $end
$var wire 1 } En $end
$var wire 1 , clk $end
$var wire 1 . reset $end
$var wire 2 "" Q2 [1:0] $end
$scope module a $end
$var wire 1 #" D $end
$var wire 1 } En $end
$var wire 1 , clk $end
$var wire 1 . reset $end
$var reg 1 $" Q $end
$upscope $end
$scope module b $end
$var wire 1 %" D $end
$var wire 1 } En $end
$var wire 1 , clk $end
$var wire 1 . reset $end
$var reg 1 &" Q $end
$upscope $end
$upscope $end
$scope module b $end
$var wire 2 '" D2 [1:0] $end
$var wire 1 } En $end
$var wire 1 , clk $end
$var wire 1 . reset $end
$var wire 2 (" Q2 [1:0] $end
$scope module a $end
$var wire 1 )" D $end
$var wire 1 } En $end
$var wire 1 , clk $end
$var wire 1 . reset $end
$var reg 1 *" Q $end
$upscope $end
$scope module b $end
$var wire 1 +" D $end
$var wire 1 } En $end
$var wire 1 , clk $end
$var wire 1 . reset $end
$var reg 1 ," Q $end
$upscope $end
$upscope $end
$upscope $end
$scope module phasemodule $end
$var wire 1 , clk $end
$var wire 1 . reset $end
$var wire 1 $ Q $end
$scope module a $end
$var wire 1 -" D $end
$var wire 1 , clk $end
$var wire 1 . reset $end
$var reg 1 $ Q $end
$upscope $end
$upscope $end
$scope module progra_counter $end
$var wire 1 , clk $end
$var wire 1 ." enable $end
$var wire 1 /" loact $end
$var wire 12 0" load [11:0] $end
$var wire 1 . reset $end
$var reg 12 1" cont [11:0] $end
$upscope $end
$scope module ram $end
$var wire 12 2" address_ram [11:0] $end
$var wire 1 3" cs $end
$var wire 4 4" data [3:0] $end
$var wire 1 5" we $end
$var reg 4 6" data_out [3:0] $end
$scope begin MEM_READ $end
$upscope $end
$scope begin MEM_WRITE $end
$upscope $end
$upscope $end
$scope module rom $end
$var wire 12 7" address [11:0] $end
$var wire 8 8" data [7:0] $end
$upscope $end
$upscope $end
$upscope $end
$enddefinitions $end
#0
$dumpvars
bx 8"
bx 7"
bx 6"
x5"
bx 4"
x3"
bx 2"
bx 1"
bx 0"
x/"
x."
x-"
x,"
x+"
x*"
x)"
bx ("
bx '"
x&"
x%"
x$"
x#"
bx ""
bx !"
bx ~
x}
bx |
x{
xz
xy
xx
bx w
xv
bx u
xt
xs
xr
xq
bx p
bx o
xn
xm
xl
xk
bx j
bx i
bx h
bx g
xf
xe
xd
xc
bx b
bx a
x`
x_
x^
x]
bx \
bx [
bx Z
bx Y
bx X
bx W
bx V
xU
bx T
bx S
bx R
bx Q
b110 P
xO
bx N
bx M
xL
bx K
bx J
xI
bx H
bx G
bx F
bx E
bx D
bx C
bx B
xA
x@
bx ?
bx >
x=
bx <
bx ;
bx :
bx 9
bx 8
bx 7
bx 6
bx 5
b110 4
bx 3
b0 2
b100010100 1
b1010010000 0
b10000 /
0.
b110 -
0,
bx +
bx *
bx )
bx (
x'
bx &
bx %
x$
bx #
x"
bx !
$end
#2
0#"
0%"
0)"
0+"
b0 !"
b0 '"
b0 !
b0 3
b0 E
b0 K
b0 M
b0 Q
b0 |
b0 4"
05"
03"
0O
0}
1I
0A
b0 F
0L
0v
0/"
1."
b1000000001000 :
b1000000001000 S
b1000000001000 T
1x
1=
0z
b0 5
b0 B
b0 G
b0 J
b10 u
0@
b0 H
1-"
1U
0"
0'
b0 )
b0 <
b0 C
b0 D
0^
b0 \
0`
0d
b0 &
b0 8
b0 W
b0 Z
b0 b
0f
0l
b0 j
0n
0r
b0 %
b0 7
b0 N
b0 V
b0 h
b0 p
0t
b0 9
b0 R
0$
0y
b0 w
0{
0$"
b0 ""
0&"
0*"
b0 +
b0 ?
b0 ~
b0 ("
0,"
1k
1m
1q
1s
0]
1_
0c
0e
b11 i
b11 o
b1 [
b0 a
b1111 g
b100 Y
b1001111 (
b1001111 ;
b1001111 0"
b1001111 2"
b1001111 #
b1001111 6
b1001111 X
b1001111 8"
b0 *
b0 >
b0 1"
b0 7"
1.
#3
0.
#5
0x
b0 u
0=
1#"
1%"
1)"
1+"
b1111 5
b1111 B
b1111 G
b1111 J
b11 !"
b11 '"
b1111 H
b1111 !
b1111 3
b1111 E
b1111 K
b1111 M
b1111 Q
b1111 |
b1111 4"
0I
1A
b10 F
1L
1v
0."
b11010000010 :
b11010000010 S
b11010000010 T
0-"
0U
1$
1t
b11 p
1r
1n
b1111 %
b1111 7
b1111 N
b1111 V
b1111 h
b11 j
1l
b100001 9
b100001 R
b100 &
b100 8
b100 W
b100 Z
b1 \
1`
1]
1e
b11 [
b1 a
b1101 Y
b111111011111 (
b111111011111 ;
b111111011111 0"
b111111011111 2"
b11011111 #
b11011111 6
b11011111 X
b11011111 8"
b1 *
b1 >
b1 1"
b1 7"
1,
#10
0,
#15
b1111 !
b1111 3
b1111 E
b1111 K
b1111 M
b1111 Q
b1111 |
b1111 4"
1I
0A
b0 F
0L
0v
1."
b1000000001000 :
b1000000001000 S
b1000000001000 T
1-"
1U
b1111 )
b1111 <
b1111 C
b1111 D
b100000 9
b100000 R
0$
1,
#16
b1000110 2
#20
0,
#25
1}
0."
b1001 :
b1001 S
b1001 T
0-"
0U
1$
b1 b
1f
b1101001 9
b1101001 R
b1101 &
b1101 8
b1101 W
b1101 Z
b11 \
1^
0k
0m
0q
0]
b0 i
b1 o
b1 [
b1 g
b101 Y
b111101010001 (
b111101010001 ;
b111101010001 0"
b111101010001 2"
b1010001 #
b1010001 6
b1010001 X
b1010001 8"
b10 *
b10 >
b10 1"
b10 7"
1,
#30
0,
#35
0}
1."
b1000000001000 :
b1000000001000 S
b1000000001000 T
1-"
1U
b1101000 9
b1101000 R
0$
1$"
b11 ""
1&"
1*"
b1111 +
b1111 ?
b1111 ~
b11 ("
1,"
1,
#36
b1100111 2
#40
0,
#45
b110 5
b110 B
b110 G
b110 J
0#"
0+"
b110 H
b1 !"
b10 '"
b110 !
b110 3
b110 E
b110 K
b110 M
b110 Q
b110 |
b110 4"
1O
0I
1A
b10 F
1v
0."
b11010000100 :
b11010000100 S
b11010000100 T
0-"
0U
1$
b1 p
0r
0n
b1 %
b1 7
b1 N
b1 V
b1 h
b0 j
0l
b101001 9
b101001 R
b101 &
b101 8
b101 W
b101 Z
b1 \
0^
0s
0e
b0 o
b0 a
b0 g
b100 Y
b101000000 (
b101000000 ;
b101000000 0"
b101000000 2"
b1000000 #
b1000000 6
b1000000 X
b1000000 8"
b11 *
b11 >
b11 1"
b11 7"
1,
#50
0,
#55
0O
1I
0A
b0 F
0v
1."
b1000000001000 :
b1000000001000 S
b1000000001000 T
1-"
1U
b110 )
b110 <
b110 C
b110 D
b101000 9
b101000 R
0$
1,
#56
b10001000 2
#60
0,
#65
1x
b10 u
1=
0%"
0)"
b0 5
b0 B
b0 G
b0 J
b0 !"
b0 '"
b0 H
b0 !
b0 3
b0 E
b0 K
b0 M
b0 Q
b0 |
b0 4"
0I
1A
b10 F
1L
1v
0."
b11010000010 :
b11010000010 S
b11010000010 T
0-"
0U
1$
b0 %
b0 7
b0 N
b0 V
b0 h
b0 p
0t
b100001 9
b100001 R
b100 &
b100 8
b100 W
b100 Z
b0 b
0f
1k
1m
1q
1s
b11 i
b11 o
b1111 g
b1001111 (
b1001111 ;
b1001111 0"
b1001111 2"
b1001111 #
b1001111 6
b1001111 X
b1001111 8"
b100 *
b100 >
b100 1"
b100 7"
1,
#70
0,
#75
b0 !
b0 3
b0 E
b0 K
b0 M
b0 Q
b0 |
b0 4"
1I
0A
b0 F
0L
0v
1."
b1000000001000 :
b1000000001000 S
b1000000001000 T
1-"
1U
1"
b0 )
b0 <
b0 C
b0 D
b100010 9
b100010 R
0$
b10 w
1y
1,
#80
0,
#85
0x
b0 u
0=
1#"
1%"
1)"
1+"
b1111 5
b1111 B
b1111 G
b1111 J
b11 !"
b11 '"
b1111 H
b1111 !
b1111 3
b1111 E
b1111 K
b1111 M
b1111 Q
b1111 |
b1111 4"
0I
1A
b10 F
1L
1v
0."
b11010000010 :
b11010000010 S
b11010000010 T
0-"
0U
b100011 9
b100011 R
1$
1t
b11 p
1r
1n
b1111 %
b1111 7
b1111 N
b1111 V
b1111 h
b11 j
1l
0m
0s
1]
0_
1c
b10 i
b10 o
b10 [
b10 a
b1010 g
b1010 Y
b111110101010 (
b111110101010 ;
b111110101010 0"
b111110101010 2"
b10101010 #
b10101010 6
b10101010 X
b10101010 8"
b101 *
b101 >
b101 1"
b101 7"
1,
#90
0,
#95
b1111 !
b1111 3
b1111 E
b1111 K
b1111 M
b1111 Q
b1111 |
b1111 4"
1I
0A
b0 F
0L
0v
1."
b1000000001000 :
b1000000001000 S
b1000000001000 T
1-"
1U
0"
b1111 )
b1111 <
b1111 C
b1111 D
b100000 9
b100000 R
0$
b0 w
0y
1,
#100
0,
#105
1z
0%"
0+"
b1001 5
b1001 B
b1001 G
b1001 J
b1 u
1@
b10 !"
b10 '"
b11001 H
b1010 !
b1010 3
b1010 E
b1010 K
b1010 M
b1010 Q
b1010 |
b1010 4"
0I
1A
b11 F
1L
1v
0."
b11011000010 :
b11011000010 S
b11011000010 T
0-"
0U
1$
b10 p
0t
b1010 %
b1010 7
b1010 N
b1010 V
b1010 h
b10 j
0n
b10 b
1d
0`
b1010001 9
b1010001 R
b1010 &
b1010 8
b1010 W
b1010 Z
b10 \
1^
0q
0]
b0 o
b0 [
b1000 g
b10 Y
b101000101000 (
b101000101000 ;
b101000101000 0"
b101000101000 2"
b101000 #
b101000 6
b101000 X
b101000 8"
b110 *
b110 >
b110 1"
b110 7"
1,
#110
0,
#115
0)"
0z
1#"
1+"
b0 u
0@
b10 !"
b1 '"
b1001 !
b1001 3
b1001 E
b1001 K
b1001 M
b1001 Q
b1001 |
b1001 4"
1I
0A
b0 F
0L
0v
1."
b1000000001000 :
b1000000001000 S
b1000000001000 T
b1001 5
b1001 B
b1001 G
b1001 J
b1001 H
1-"
1U
1'
b1001 )
b1001 <
b1001 C
b1001 D
b1010100 9
b1010100 R
0$
b1 w
1{
1,
#116
b10101001 2
#120
0,
#125
0z
0+"
b1 5
b1 B
b1 G
b1 J
b0 u
0@
b0 '"
b1 H
b1000 !
b1000 3
b1000 E
b1000 K
b1000 M
b1000 Q
b1000 |
b1000 4"
0I
b1 F
1L
1v
0."
b1001000010 :
b1001000010 S
b1001000010 T
0-"
0U
1$
b1000 %
b1000 7
b1000 N
b1000 V
b1000 h
b0 p
0r
b10101 9
b10101 R
b10 &
b10 8
b10 W
b10 Z
b0 \
0^
1q
1_
0c
b10 o
b1 [
b0 a
b1010 g
b100 Y
b100001001010 (
b100001001010 ;
b100001001010 0"
b100001001010 2"
b1001010 #
b1001010 6
b1001010 X
b1001010 8"
b111 *
b111 >
b111 1"
b111 7"
1,
#130
0,
#135
1#"
1+"
b1001 5
b1001 B
b1001 G
b1001 J
b10 !"
b1 '"
b1001 H
b1001 !
b1001 3
b1001 E
b1001 K
b1001 M
b1001 Q
b1001 |
b1001 4"
1I
b0 F
0L
0v
1."
b1000000001000 :
b1000000001000 S
b1000000001000 T
1-"
1U
0'
b10000 9
b10000 R
0$
b0 w
0{
1,
#136
b11001010 2
#140
0,
#145
1)"
0+"
b1010 5
b1010 B
b1010 G
b1010 J
b10 '"
b1010 H
b1010 !
b1010 3
b1010 E
b1010 K
b1010 M
b1010 Q
b1010 |
b1010 4"
0I
1A
b10 F
1L
1v
0."
b11010000010 :
b11010000010 S
b11010000010 T
0-"
0U
1$
b1010 %
b1010 7
b1010 N
b1010 V
b1010 h
b10 p
1r
b0 b
0d
b100001 9
b100001 R
b100 &
b100 8
b100 W
b100 Z
b1 \
1`
1m
0q
0_
1c
b11 i
b0 o
b0 [
b10 a
b1100 g
b10 Y
b101000101100 (
b101000101100 ;
b101000101100 0"
b101000101100 2"
b101100 #
b101100 6
b101100 X
b101100 8"
b1000 *
b1000 >
b1000 1"
b1000 7"
1,
#150
0,
#155
b1010 !
b1010 3
b1010 E
b1010 K
b1010 M
b1010 Q
b1010 |
b1010 4"
1I
0A
b0 F
0L
0v
1."
b1000000001000 :
b1000000001000 S
b1000000001000 T
1-"
1U
b1010 )
b1010 <
b1010 C
b1010 D
b100000 9
b100000 R
0$
1,
#160
0,
#165
1z
1%"
0)"
b1110 5
b1110 B
b1110 G
b1110 J
b1 u
1@
b11 !"
b0 '"
b11110 H
b1100 !
b1100 3
b1100 E
b1100 K
b1100 M
b1100 Q
b1100 |
b1100 4"
0I
b1 F
1L
1v
0."
b1001000010 :
b1001000010 S
b1001000010 T
0-"
0U
1$
b0 p
0r
b1100 %
b1100 7
b1100 N
b1100 V
b1100 h
b11 j
1n
b10 b
1d
b10001 9
b10001 R
b10 &
b10 8
b10 W
b10 Z
b0 \
0`
0k
0m
1s
1]
b0 i
b1 o
b10 [
b1 g
b1010 Y
b110010100001 (
b110010100001 ;
b110010100001 0"
b110010100001 2"
b10100001 #
b10100001 6
b10100001 X
b10100001 8"
b1001 *
b1001 >
b1001 1"
b1001 7"
1,
#170
0,
#175
0%"
b10 !"
0z
1)"
b1010 5
b1010 B
b1010 G
b1010 J
b0 u
0@
b10 '"
b1010 H
b1010 !
b1010 3
b1010 E
b1010 K
b1010 M
b1010 Q
b1010 |
b1010 4"
1I
b0 F
0L
0v
1."
b1000000001000 :
b1000000001000 S
b1000000001000 T
1-"
1U
1'
b10100 9
b10100 R
0$
b1 w
1{
1,
#176
b11101011 2
#180
0,
#185
0z
0#"
0)"
1+"
b1011 5
b1011 B
b1011 G
b1011 J
b0 u
0@
b0 !"
b1 '"
b1011 H
b1 !
b1 3
b1 E
b1 K
b1 M
b1 Q
b1 |
b1 4"
0I
1A
b11 F
1L
1v
0."
b11011000010 :
b11011000010 S
b11011000010 T
0-"
0U
1$
b1 p
1t
0n
b1 %
b1 7
b1 N
b1 V
b1 h
b0 j
0l
b1010101 9
b1010101 R
b1010 &
b1010 8
b1010 W
b1010 Z
b10 \
1^
1k
1q
1_
b10 i
b11 o
b11 [
b1011 g
b1110 Y
b111101011 (
b111101011 ;
b111101011 0"
b111101011 2"
b11101011 #
b11101011 6
b11101011 X
b11101011 8"
b1010 *
b1010 >
b1010 1"
b1010 7"
1,
#190
0,
#195
1)"
1#"
0%"
1+"
b10 !"
b11 '"
b1011 !
b1011 3
b1011 E
b1011 K
b1011 M
b1011 Q
b1011 |
b1011 4"
1I
0A
b0 F
0L
0v
1."
b1000000001000 :
b1000000001000 S
b1000000001000 T
b1011 5
b1011 B
b1011 G
b1011 J
b1011 H
1-"
1U
0'
b1011 )
b1011 <
b1011 C
b1011 D
b1010000 9
b1010000 R
0$
b0 w
0{
1,
#196
b100001100 2
#200
0,
#205
b100 5
b100 B
b100 G
b100 J
b100 H
0I
1A
b100 F
1L
1v
0."
b11100000010 :
b11100000010 S
b11100000010 T
0-"
0U
1$
b11 p
1r
b1011 %
b1011 7
b1011 N
b1011 V
b1011 h
b10 j
1l
b1110001 9
b1110001 R
b1110 &
b1110 8
b1110 W
b1110 Z
b11 \
1`
0k
0q
0s
0c
1e
b0 i
b0 o
b1 a
b0 g
b1101 Y
b101111010000 (
b101111010000 ;
b101111010000 0"
b101111010000 2"
b11010000 #
b11010000 6
b11010000 X
b11010000 8"
b1011 *
b1011 >
b1011 1"
b1011 7"
1,
#210
0,
#215
0#"
0)"
0+"
b0 '"
1%"
b1 !"
b100 !
b100 3
b100 E
b100 K
b100 M
b100 Q
b100 |
b100 4"
1I
0A
b0 F
0L
0v
1."
b1000000001000 :
b1000000001000 S
b1000000001000 T
b100 5
b100 B
b100 G
b100 J
b100 H
1-"
1U
b100 )
b100 <
b100 C
b100 D
b1110000 9
b1110000 R
0$
1,
#216
b101001110 2
#220
0,
#225
1}
0."
b1001 :
b1001 S
b1001 T
0-"
0U
1$
0t
b0 p
0r
b0 %
b0 7
b0 N
b0 V
b0 h
b0 j
0l
1f
b1101001 9
b1101001 R
b1101 &
b1101 8
b1101 W
b1101 Z
b1 b
0d
0]
b1 [
b101 Y
b1010000 (
b1010000 ;
b1010000 0"
b1010000 2"
b1010000 #
b1010000 6
b1010000 X
b1010000 8"
b1100 *
b1100 >
b1100 1"
b1100 7"
1,
#230
0,
#235
0}
1."
b1000000001000 :
b1000000001000 S
b1000000001000 T
1-"
1U
b1101000 9
b1101000 R
0$
b1 ""
0$"
0*"
b100 +
b100 ?
b100 ~
b0 ("
0,"
1,
#236
b1110 -
b1110 4
b1110 P
b101101111 2
#240
0,
#245
b1110 5
b1110 B
b1110 G
b1110 J
1#"
1)"
b1110 H
b11 !"
b10 '"
b1110 !
b1110 3
b1110 E
b1110 K
b1110 M
b1110 Q
b1110 |
b1110 4"
1O
0I
1A
b10 F
1v
0."
b11010000100 :
b11010000100 S
b11010000100 T
0-"
0U
1$
b101001 9
b101001 R
b101 &
b101 8
b101 W
b101 Z
b1 \
0^
1c
b11 a
b111 Y
b1110000 (
b1110000 ;
b1110000 0"
b1110000 2"
b1110000 #
b1110000 6
b1110000 X
b1110000 8"
b1101 *
b1101 >
b1101 1"
b1101 7"
1,
#250
0,
#255
0O
1I
0A
b0 F
0v
1."
b1000000001000 :
b1000000001000 S
b1000000001000 T
1-"
1U
b1110 )
b1110 <
b1110 C
b1110 D
b101000 9
b101000 R
0$
1,
#256
b110010000 2
#260
0,
#265
15"
13"
b1000000111000 :
b1000000111000 S
b1000000111000 T
0-"
0U
1$
b111001 9
b111001 R
b111 &
b111 8
b111 W
b111 Z
b11 b
1d
0_
0c
0e
b0 [
b0 a
b0 Y
b0 (
b0 ;
b0 0"
b0 2"
b0 #
b0 6
b0 X
b0 8"
b1110 *
b1110 >
b1110 1"
b1110 7"
1,
#270
0,
#275
05"
03"
b1000000001000 :
b1000000001000 S
b1000000001000 T
1-"
1U
b111000 9
b111000 R
0$
1k
1m
1q
1s
1_
b11 i
b11 o
b1 [
b1111 g
b100 Y
b1001111 (
b1001111 ;
b1001111 0"
b1001111 2"
b1001111 #
b1001111 6
b1001111 X
b1001111 8"
b1111 *
b1111 >
b1111 1"
b1111 7"
1,
#280
0,
#285
1+"
b1111 5
b1111 B
b1111 G
b1111 J
b11 '"
b1111 H
b1111 !
b1111 3
b1111 E
b1111 K
b1111 M
b1111 Q
b1111 |
b1111 4"
0I
1A
b10 F
1L
1v
0."
b11010000010 :
b11010000010 S
b11010000010 T
0-"
0U
1$
1t
b11 p
1r
1n
b1111 %
b1111 7
b1111 N
b1111 V
b1111 h
b11 j
1l
0f
b100001 9
b100001 R
b100 &
b100 8
b100 W
b100 Z
b0 b
0d
0k
0m
0q
1c
1e
b0 i
b1 o
b11 a
b1 g
b111 Y
b111101110001 (
b111101110001 ;
b111101110001 0"
b111101110001 2"
b1110001 #
b1110001 6
b1110001 X
b1110001 8"
b10000 *
b10000 >
b10000 1"
b10000 7"
1,
#290
0,
#295
b1111 !
b1111 3
b1111 E
b1111 K
b1111 M
b1111 Q
b1111 |
b1111 4"
1I
0A
b0 F
0L
0v
1."
b1000000001000 :
b1000000001000 S
b1000000001000 T
1-"
1U
b1111 )
b1111 <
b1111 C
b1111 D
b100000 9
b100000 R
0$
1,
#300
0,
#305
15"
13"
b1000000111000 :
b1000000111000 S
b1000000111000 T
0-"
0U
1$
b1 p
0r
0n
b1 %
b1 7
b1 N
b1 V
b1 h
b0 j
0l
1f
b111001 9
b111001 R
b111 &
b111 8
b111 W
b111 Z
b11 b
1d
0_
0c
b0 [
b1 a
b1 Y
b100010001 (
b100010001 ;
b100010001 0"
b100010001 2"
b10001 #
b10001 6
b10001 X
b10001 8"
b10001 *
b10001 >
b10001 1"
b10001 7"
1,
#310
0,
#315
05"
03"
b1000000001000 :
b1000000001000 S
b1000000001000 T
1-"
1U
b111000 9
b111000 R
0$
1k
1q
0s
1_
0e
b10 i
b10 o
b1 [
b0 a
b1010 g
b100 Y
b101001010 (
b101001010 ;
b101001010 0"
b101001010 2"
b1001010 #
b1001010 6
b1001010 X
b1001010 8"
b10010 *
b10010 >
b10010 1"
b10010 7"
1,
#320
0,
#325
0%"
0+"
b1010 5
b1010 B
b1010 G
b1010 J
b10 !"
b10 '"
b1010 H
b1010 !
b1010 3
b1010 E
b1010 K
b1010 M
b1010 Q
b1010 |
b1010 4"
0I
1A
b10 F
1L
1v
0."
b11010000010 :
b11010000010 S
b11010000010 T
0-"
0U
1$
0t
b10 p
1r
b1010 %
b1010 7
b1010 N
b1010 V
b1010 h
b10 j
1l
0f
b100001 9
b100001 R
b100 &
b100 8
b100 W
b100 Z
b0 b
0d
0k
1c
1e
b0 i
b11 a
b10 g
b111 Y
b101001110010 (
b101001110010 ;
b101001110010 0"
b101001110010 2"
b1110010 #
b1110010 6
b1110010 X
b1110010 8"
b10011 *
b10011 >
b10011 1"
b10011 7"
1,
#330
0,
#335
b1010 !
b1010 3
b1010 E
b1010 K
b1010 M
b1010 Q
b1010 |
b1010 4"
1I
0A
b0 F
0L
0v
1."
b1000000001000 :
b1000000001000 S
b1000000001000 T
1-"
1U
b1010 )
b1010 <
b1010 C
b1010 D
b100000 9
b100000 R
0$
1,
#340
0,
#345
15"
13"
b1000000111000 :
b1000000111000 S
b1000000111000 T
0-"
0U
1$
b10 %
b10 7
b10 N
b10 V
b10 h
b0 j
0l
1f
b111001 9
b111001 R
b111 &
b111 8
b111 W
b111 Z
b11 b
1d
0_
0e
b0 [
b10 a
b10 Y
b1000100010 (
b1000100010 ;
b1000100010 0"
b1000100010 2"
b100010 #
b100010 6
b100010 X
b100010 8"
b10100 *
b10100 >
b10100 1"
b10100 7"
1,
#350
0,
#355
05"
03"
b1000000001000 :
b1000000001000 S
b1000000001000 T
1-"
1U
b111000 9
b111000 R
0$
0q
1s
1_
0c
b1 o
b1 [
b0 a
b1 g
b100 Y
b1001000001 (
b1001000001 ;
b1001000001 0"
b1001000001 2"
b1000001 #
b1000001 6
b1000001 X
b1000001 8"
b10101 *
b10101 >
b10101 1"
b10101 7"
1,
#360
0,
#365
0#"
0)"
1+"
b1 5
b1 B
b1 G
b1 J
b0 !"
b1 '"
b1 H
b1 !
b1 3
b1 E
b1 K
b1 M
b1 Q
b1 |
b1 4"
0I
1A
b10 F
1L
1v
0."
b11010000010 :
b11010000010 S
b11010000010 T
0-"
0U
1$
1t
b1 %
b1 7
b1 N
b1 V
b1 h
b1 p
0r
0f
b100001 9
b100001 R
b100 &
b100 8
b100 W
b100 Z
b0 b
0d
1q
1c
1e
b11 o
b11 a
b11 g
b111 Y
b101110011 (
b101110011 ;
b101110011 0"
b101110011 2"
b1110011 #
b1110011 6
b1110011 X
b1110011 8"
b10110 *
b10110 >
b10110 1"
b10110 7"
1,
#370
0,
#375
b1 !
b1 3
b1 E
b1 K
b1 M
b1 Q
b1 |
b1 4"
1I
0A
b0 F
0L
0v
1."
b1000000001000 :
b1000000001000 S
b1000000001000 T
1-"
1U
b1 )
b1 <
b1 C
b1 D
b100000 9
b100000 R
0$
1,
#380
0,
#385
15"
13"
b1000000111000 :
b1000000111000 S
b1000000111000 T
0-"
0U
1$
b11 %
b11 7
b11 N
b11 V
b11 h
b11 p
1r
1f
b111001 9
b111001 R
b111 &
b111 8
b111 W
b111 Z
b11 b
1d
0_
b0 [
b11 Y
b1100110011 (
b1100110011 ;
b1100110011 0"
b1100110011 2"
b110011 #
b110011 6
b110011 X
b110011 8"
b10111 *
b10111 >
b10111 1"
b10111 7"
1,
#390
0,
#395
05"
03"
b1000000001000 :
b1000000001000 S
b1000000001000 T
1-"
1U
b111000 9
b111000 R
0$
0q
0s
1_
0e
b0 o
b1 [
b10 a
b0 g
b110 Y
b1101100000 (
b1101100000 ;
b1101100000 0"
b1101100000 2"
b1100000 #
b1100000 6
b1100000 X
b1100000 8"
b11000 *
b11000 >
b11000 1"
b11000 7"
1,
#400
0,
